id,question,answer1,answer2,answer3,answer4,answer5,answer6,correct
1,Putin is:,President,Minister,General,Cunt,Politician,Some surname,4
2,Russians are:,Bastards,I don't know,Some nation,Neighborhood,Some new expression,Euphemism,1
3,Russian warship status:,Is sailing,Flagship,Is fighting,Under repair,Repaired,Russian warship go fuck yourself,6
4,Crimea is:,Island,Part of Ukraine,Continent,River,Country,City,2
5,Glory to Ukraine:,Glory,Glory forever,Glory to the heroes,Great glory,Ukrainian glory,Glory of Ukraine,3